Ciencia de Datos para Políticas Públicas
…
---

# Donde comenzamos

```r
(enfermedades <- who %>% 
  select(-iso2, -iso3))
```

```
## # A tibble: 7,240 x 58
##    country  year new_sp_m014 new_sp_m1524 new_sp_m2534 new_sp_m3544 new_sp_m4554
##    <chr>   <int>       <int>        <int>        <int>        <int>        <int>
##  1 Afghan~  1980          NA           NA           NA           NA           NA
##  2 Afghan~  1981          NA           NA           NA           NA           NA
##  3 Afghan~  1982          NA           NA           NA           NA           NA
##  4 Afghan~  1983          NA           NA           NA           NA           NA
##  5 Afghan~  1984          NA           NA           NA           NA           NA
##  6 Afghan~  1985          NA           NA           NA           NA           NA
##  7 Afghan~  1986          NA           NA           NA           NA           NA
##  8 Afghan~  1987          NA           NA           NA           NA           NA
##  9 Afghan~  1988          NA           NA           NA           NA           NA
## 10 Afghan~  1989          NA           NA           NA           NA           NA
## # ... with 7,230 more rows, and 51 more variables: new_sp_m5564 <int>,
## #   new_sp_m65 <int>, new_sp_f014 <int>, new_sp_f1524 <int>,
## #   new_sp_f2534 <int>, new_sp_f3544 <int>, new_sp_f4554 <int>,
## #   new_sp_f5564 <int>, new_sp_f65 <int>, new_sn_m014 <int>,
## #   new_sn_m1524 <int>, new_sn_m2534 <int>, new_sn_m3544 <int>,
## #   new_sn_m4554 <int>, new_sn_m5564 <int>, new_sn_m65 <int>,
## #   new_sn_f014 <int>, new_sn_f1524 <int>, new_sn_f2534 <int>,
## #   new_sn_f3544 <int>, new_sn_f4554 <int>, new_sn_f5564 <int>,
## #   new_sn_f65 <int>, new_ep_m014 <int>, new_ep_m1524 <int>,
…
.pull-left2[
.smaller[

```r
enfermedades
```
]
]

.pull-right2[
.small[

```
## # A tibble: 7,240 x 58
##    country  year new_sp_m014 new_sp_m1524 new_sp_m2534 new_sp_m3544 new_sp_m4554
##    <chr>   <int>       <int>        <int>        <int>        <int>        <int>
##  1 Afghan~  1980          NA           NA           NA           NA           NA
##  2 Afghan~  1981          NA           NA           NA           NA           NA
##  3 Afghan~  1982          NA           NA           NA           NA           NA
##  4 Afghan~  1983          NA           NA           NA           NA           NA
##  5 Afghan~  1984          NA           NA           NA           NA           NA
##  6 Afghan~  1985          NA           NA           NA           NA           NA
##  7 Afghan~  1986          NA           NA           NA           NA           NA
##  8 Afghan~  1987          NA           NA           NA           NA           NA
##  9 Afghan~  1988          NA           NA           NA           NA           NA
## 10 Afghan~  1989          NA           NA           NA           NA           NA
## # ... with 7,230 more rows, and 51 more variables: new_sp_m5564 <int>,
## #   new_sp_m65 <int>, new_sp_f014 <int>, new_sp_f1524 <int>,
## #   new_sp_f2534 <int>, new_sp_f3544 <int>, new_sp_f4554 <int>,
## #   new_sp_f5564 <int>, new_sp_f65 <int>, new_sn_m014 <int>,
## #   new_sn_m1524 <int>, new_sn_m2534 <int>, new_sn_m3544 <int>,
## #   new_sn_m4554 <int>, new_sn_m5564 <int>, new_sn_m65 <int>,
## #   new_sn_f014 <int>, new_sn_f1524 <int>, new_sn_f2534 <int>,
## #   new_sn_f3544 <int>, new_sn_f4554 <int>, new_sn_f5564 <int>,
## #   new_sn_f65 <int>, new_ep_m014 <int>, new_ep_m1524 <int>,
…
```r
enfermedades %>% 
* pivot_longer(-c(country:year),
*              names_to = "variables",
*              values_to = "valores")
```
]
]

.pull-right2[
.small[

```
## # A tibble: 405,440 x 4
##    country      year variables    valores
##    <chr>       <int> <chr>          <int>
##  1 Afghanistan  1980 new_sp_m014       NA
##  2 Afghanistan  1980 new_sp_m1524      NA
##  3 Afghanistan  1980 new_sp_m2534      NA
##  4 Afghanistan  1980 new_sp_m3544      NA
##  5 Afghanistan  1980 new_sp_m4554      NA
##  6 Afghanistan  1980 new_sp_m5564      NA
##  7 Afghanistan  1980 new_sp_m65        NA
##  8 Afghanistan  1980 new_sp_f014       NA
##  9 Afghanistan  1980 new_sp_f1524      NA
## 10 Afghanistan  1980 new_sp_f2534      NA
## # ... with 405,430 more rows
```
…
```r
enfermedades %>% 
  pivot_longer(-c(country:year), 
               names_to = "variables", 
               values_to = "valores")
```
]
]

.pull-right2[
.small[

```
## # A tibble: 405,440 x 4
##    country      year variables    valores
##    <chr>       <int> <chr>          <int>
##  1 Afghanistan  1980 new_sp_m014       NA
##  2 Afghanistan  1980 new_sp_m1524      NA
##  3 Afghanistan  1980 new_sp_m2534      NA
##  4 Afghanistan  1980 new_sp_m3544      NA
##  5 Afghanistan  1980 new_sp_m4554      NA
##  6 Afghanistan  1980 new_sp_m5564      NA
##  7 Afghanistan  1980 new_sp_m65        NA
##  8 Afghanistan  1980 new_sp_f014       NA
##  9 Afghanistan  1980 new_sp_f1524      NA
## 10 Afghanistan  1980 new_sp_f2534      NA
## # ... with 405,430 more rows
```
…
.pull-right2[
.small[

```
## # A tibble: 405,440 x 4
##    country      year variables valores
##    <chr>       <int> <chr>       <int>
##  1 Afghanistan  1980 sp_m014        NA
##  2 Afghanistan  1980 sp_m1524       NA
##  3 Afghanistan  1980 sp_m2534       NA
##  4 Afghanistan  1980 sp_m3544       NA
##  5 Afghanistan  1980 sp_m4554       NA
##  6 Afghanistan  1980 sp_m5564       NA
##  7 Afghanistan  1980 sp_m65         NA
##  8 Afghanistan  1980 sp_f014        NA
##  9 Afghanistan  1980 sp_f1524       NA
## 10 Afghanistan  1980 sp_f2534       NA
## # ... with 405,430 more rows
```
…
.pull-right2[
.small[

```
## # A tibble: 405,440 x 5
##    country      year enfermedad otro  valores
##    <chr>       <int> <chr>      <chr>   <int>
##  1 Afghanistan  1980 sp         m014       NA
##  2 Afghanistan  1980 sp         m1524      NA
##  3 Afghanistan  1980 sp         m2534      NA
##  4 Afghanistan  1980 sp         m3544      NA
##  5 Afghanistan  1980 sp         m4554      NA
##  6 Afghanistan  1980 sp         m5564      NA
##  7 Afghanistan  1980 sp         m65        NA
##  8 Afghanistan  1980 sp         f014       NA
##  9 Afghanistan  1980 sp         f1524      NA
## 10 Afghanistan  1980 sp         f2534      NA
## # ... with 405,430 more rows
```
…
.pull-right2[
.small[

```
## # A tibble: 405,440 x 6
##    country      year enfermedad sexo  edad  valores
##    <chr>       <int> <chr>      <chr> <chr>   <int>
##  1 Afghanistan  1980 sp         m     014        NA
##  2 Afghanistan  1980 sp         m     1524       NA
##  3 Afghanistan  1980 sp         m     2534       NA
##  4 Afghanistan  1980 sp         m     3544       NA
##  5 Afghanistan  1980 sp         m     4554       NA
##  6 Afghanistan  1980 sp         m     5564       NA
##  7 Afghanistan  1980 sp         m     65         NA
##  8 Afghanistan  1980 sp         f     014        NA
##  9 Afghanistan  1980 sp         f     1524       NA
## 10 Afghanistan  1980 sp         f     2534       NA
## # ... with 405,430 more rows
```
…
.pull-right2[
.small[

```
## # A tibble: 405,440 x 6
##    country      year enfermedad sexo  edad  valores
##    <chr>       <int> <chr>      <chr> <chr>   <int>
##  1 Afghanistan  1980 sp         m     014        NA
##  2 Afghanistan  1980 sp         m     1524       NA
##  3 Afghanistan  1980 sp         m     2534       NA
##  4 Afghanistan  1980 sp         m     3544       NA
##  5 Afghanistan  1980 sp         m     4554       NA
##  6 Afghanistan  1980 sp         m     5564       NA
##  7 Afghanistan  1980 sp         m     65         NA
##  8 Afghanistan  1980 sp         f     014        NA
##  9 Afghanistan  1980 sp         f     1524       NA
## 10 Afghanistan  1980 sp         f     2534       NA
## # ... with 405,430 more rows
```
…
.pull-right2[
.small[

```
## # A tibble: 405,440 x 6
##    country      year enfermedad sexo  edad  valores
##    <chr>       <int> <chr>      <chr> <chr>   <int>
##  1 Afghanistan  1980 sp         m     014        NA
##  2 Afghanistan  1980 sp         m     1524       NA
##  3 Afghanistan  1980 sp         m     2534       NA
##  4 Afghanistan  1980 sp         m     3544       NA
##  5 Afghanistan  1980 sp         m     4554       NA
##  6 Afghanistan  1980 sp         m     5564       NA
##  7 Afghanistan  1980 sp         m     65         NA
##  8 Afghanistan  1980 sp         f     014        NA
##  9 Afghanistan  1980 sp         f     1524       NA
## 10 Afghanistan  1980 sp         f     2534       NA
## # ... with 405,430 more rows
```
…
.pull-right2[
.small[

```
## # A tibble: 405,440 x 4
##    country      year enfermedad valores
##    <chr>       <int> <chr>        <int>
##  1 Afghanistan  1980 sp              NA
##  2 Afghanistan  1980 sp              NA
##  3 Afghanistan  1980 sp              NA
##  4 Afghanistan  1980 sp              NA
##  5 Afghanistan  1980 sp              NA
##  6 Afghanistan  1980 sp              NA
##  7 Afghanistan  1980 sp              NA
##  8 Afghanistan  1980 sp              NA
##  9 Afghanistan  1980 sp              NA
## 10 Afghanistan  1980 sp              NA
## # ... with 405,430 more rows
```
…
.pull-right2[
.small[

```
## # A tibble: 405,440 x 5
##    country      year enfermedad sexo  valores
##    <chr>       <int> <chr>      <chr>   <int>
##  1 Afghanistan  1980 sp         m          NA
##  2 Afghanistan  1980 sp         m          NA
##  3 Afghanistan  1980 sp         m          NA
##  4 Afghanistan  1980 sp         m          NA
##  5 Afghanistan  1980 sp         m          NA
##  6 Afghanistan  1980 sp         m          NA
##  7 Afghanistan  1980 sp         m          NA
##  8 Afghanistan  1980 sp         f          NA
##  9 Afghanistan  1980 sp         f          NA
## 10 Afghanistan  1980 sp         f          NA
## # ... with 405,430 more rows
```
…
.pull-right2[
.small[

```
## # A tibble: 405,440 x 6
##    country      year enfermedad sexo  edad  valores
##    <chr>       <int> <chr>      <chr> <chr>   <int>
##  1 Afghanistan  1980 sp         m     014        NA
##  2 Afghanistan  1980 sp         m     1524       NA
##  3 Afghanistan  1980 sp         m     2534       NA
##  4 Afghanistan  1980 sp         m     3544       NA
##  5 Afghanistan  1980 sp         m     4554       NA
##  6 Afghanistan  1980 sp         m     5564       NA
##  7 Afghanistan  1980 sp         m     65         NA
##  8 Afghanistan  1980 sp         f     014        NA
##  9 Afghanistan  1980 sp         f     1524       NA
## 10 Afghanistan  1980 sp         f     2534       NA
## # ... with 405,430 more rows
```
…
.pull-right2[
.small[

```
## # A tibble: 405,440 x 6
##    country      year enfermedad sexo    edad  valores
##    <chr>       <int> <chr>      <chr>   <chr>   <int>
##  1 Afghanistan  1980 sp         hombres 0-14       NA
##  2 Afghanistan  1980 sp         hombres 15-24      NA
##  3 Afghanistan  1980 sp         hombres 25-34      NA
##  4 Afghanistan  1980 sp         hombres 35-44      NA
##  5 Afghanistan  1980 sp         hombres 45-54      NA
##  6 Afghanistan  1980 sp         hombres 55-64      NA
##  7 Afghanistan  1980 sp         hombres 65+        NA
##  8 Afghanistan  1980 sp         mujeres 0-14       NA
##  9 Afghanistan  1980 sp         mujeres 15-24      NA
## 10 Afghanistan  1980 sp         mujeres 25-34      NA
## # ... with 405,430 more rows
```
…
