Ciencia de Datos para Políticas Públicas
…
# Con datos reales

<html><div style='float:left'></div><hr color='#EB811B' size=1px width=796px></html>

---

# Datos laborales

```r
(datos_trabajo <- read_xlsx("../datos/datos_trabajo.xlsx"))
```

```
## # A tibble: 687 x 4
##    trabajando  educ exper exper_cuad
##         <dbl> <dbl> <dbl>      <dbl>
##  1          0    11     1          1
##  2          1    13     4         16
##  3          1    11     4         16
##  4          1    12    19        361
##  5          1     8     2          4
##  6          0    17    10        100
##  7          1     6    14        196
##  8          0    17     1          1
##  9          1     8    25        625
## 10          1    10    11        121
## # ... with 677 more rows
```
…
Otra forma de evaluar es convertir los *valores ajustados* (resultado del modelo) que corresponde a valores entre 0 y 1 (ver `.fitted` ) en categorías que se puedan comparar con `trabajando` (0 o 1).

.small[

```r
(estimacion_logit <- augment(modelo_logit_trabajo, type.predict = "response") %>% 
  transmute(valor_real = trabajando,
            .fitted,
*           valor_estimado = ifelse(.fitted >= 0.5, 1, 0),
            check = valor_real == valor_estimado))
```

```
## # A tibble: 687 x 4
##    valor_real .fitted valor_estimado check
##         <dbl>   <dbl>          <dbl> <lgl>
##  1          0   0.501              1 FALSE
##  2          1   0.582              1 TRUE 
##  3          1   0.501              1 TRUE 
##  4          1   0.542              1 TRUE 
##  5          1   0.380              0 FALSE
##  6          0   0.729              1 FALSE
##  7          1   0.306              0 FALSE
##  8          0   0.729              1 FALSE
##  9          1   0.380              0 FALSE
## 10          1   0.460              0 FALSE
## # ... with 677 more rows
```
…
