Ciencia de Datos para Políticas Públicas
…
```
## # A tibble: 1 x 12
##   r.squared adj.r.squared sigma statistic p.value    df logLik   AIC   BIC
##       <dbl>         <dbl> <dbl>     <dbl>   <dbl> <dbl>  <dbl> <dbl> <dbl>
## 1    0.0512        0.0490  18.6      22.6 2.78e-6     1 -1822. 3650. 3663.
## # ... with 3 more variables: deviance <dbl>, df.residual <int>, nobs <int>
```

```r
augment(modelo1)
```

```
## # A tibble: 420 x 8
##    Resultados   REP .fitted .resid .std.resid    .hat .sigma  .cooksd
##         <dbl> <dbl>   <dbl>  <dbl>      <dbl>   <dbl>  <dbl>    <dbl>
##  1       691.  17.9    658.   32.7      1.76  0.00442   18.5 0.00689 
##  2       661.  21.5    650.   11.3      0.612 0.00475   18.6 0.000893
##  3       644.  18.7    656.  -12.7     -0.685 0.00297   18.6 0.000700
##  4       648.  17.4    659.  -11.7     -0.629 0.00586   18.6 0.00117 
##  5       641.  18.7    656.  -15.5     -0.836 0.00301   18.6 0.00105 
##  6       606.  21.4    650.  -44.6     -2.40  0.00446   18.5 0.0130  
##  7       607.  19.5    654.  -47.7     -2.57  0.00239   18.5 0.00794 
##  8       609   20.9    651.  -42.3     -2.28  0.00343   18.5 0.00895 
##  9       612.  19.9    653.  -41.0     -2.21  0.00244   18.5 0.00597 
## 10       613.  20.8    652.  -38.9     -2.09  0.00329   18.5 0.00723 
## # ... with 410 more rows
```
…
---

# Censo USA 2000 

```r
(census <- read_csv("../datos/census2000.csv") %>% 
  filter(hours > 500, income > 5000, age <60 ) %>% 
  mutate(ingresos_hora = income/hours) %>% 
  group_by(edad = age, sexo = sex) %>% 
  summarise(ingresos_hora = mean(ingresos_hora)) %>% 
   mutate(log_ingresos_hora = log(ingresos_hora)))
```

```
## # A tibble: 84 x 4
## # Groups:   edad [42]
##     edad sexo  ingresos_hora log_ingresos_hora
##    <dbl> <chr>         <dbl>             <dbl>
##  1    18 F             10.4               2.34
##  2    18 M              8.92              2.19
##  3    19 F              7.90              2.07
##  4    19 M              8.51              2.14
##  5    20 F              8.77              2.17
##  6    20 M              8.65              2.16
##  7    21 F              8.90              2.19
##  8    21 M              9.99              2.30
##  9    22 F              9.44              2.24
## 10    22 M              9.82              2.28
## # ... with 74 more rows
```
…
**BIC** nos da el mismo resultado que el **estadístico F**.

---

# Análisis de residuales

```r
augment(reg0)
```

```
## # A tibble: 84 x 8
##    ingresos_hora  edad .fitted .resid .std.resid   .hat .sigma  .cooksd
##            <dbl> <dbl>   <dbl>  <dbl>      <dbl>  <dbl>  <dbl>    <dbl>
##  1         10.4     18    10.7 -0.320     -0.105 0.0460   3.15 0.000264
##  2          8.92    18    10.7 -1.77      -0.579 0.0460   3.14 0.00806 
##  3          7.90    19    11.0 -3.08      -1.01  0.0427   3.13 0.0226  
##  4          8.51    19    11.0 -2.47      -0.807 0.0427   3.13 0.0145  
##  5          8.77    20    11.3 -2.49      -0.814 0.0396   3.13 0.0137  
##  6          8.65    20    11.3 -2.62      -0.854 0.0396   3.13 0.0150  
##  7          8.90    21    11.6 -2.66      -0.865 0.0367   3.13 0.0143  
##  8          9.99    21    11.6 -1.56      -0.509 0.0367   3.14 0.00493 
##  9          9.44    22    11.8 -2.40      -0.782 0.0340   3.14 0.0108  
## 10          9.82    22    11.8 -2.03      -0.659 0.0340   3.14 0.00765 
## # ... with 74 more rows
```
…
