Ciencia de Datos para Políticas Públicas
…
- `%>%`: "Encadenar" código
  * `censo %>% filter(region == "RM)`

- `+`: "Sumar" capas en `ggplot2`

---

# Imprime pero no guarda

```r
read_csv("../datos/datos_mundo.csv")
```

```
## # A tibble: 1,704 x 6
##    pais        continente  anio ExpVida      pob gdpPercap
##    <chr>       <chr>      <dbl>   <dbl>    <dbl>     <dbl>
##  1 Afghanistan Asia        1952    28.8  8425333      779.
##  2 Afghanistan Asia        1957    30.3  9240934      821.
##  3 Afghanistan Asia        1962    32.0 10267083      853.
##  4 Afghanistan Asia        1967    34.0 11537966      836.
##  5 Afghanistan Asia        1972    36.1 13079460      740.
##  6 Afghanistan Asia        1977    38.4 14880372      786.
##  7 Afghanistan Asia        1982    39.9 12881816      978.
##  8 Afghanistan Asia        1987    40.8 13867957      852.
##  9 Afghanistan Asia        1992    41.7 16317921      649.
## 10 Afghanistan Asia        1997    41.8 22227415      635.
## # ... with 1,694 more rows
```
…
```r
datos_mundo <- read_csv("../datos/datos_mundo.csv")
```

---

# Guarda e imprime

```r
datos_mundo <- read_csv("../datos/datos_mundo.csv")
datos_mundo
```

```
## # A tibble: 1,704 x 6
##    pais        continente  anio ExpVida      pob gdpPercap
##    <chr>       <chr>      <dbl>   <dbl>    <dbl>     <dbl>
##  1 Afghanistan Asia        1952    28.8  8425333      779.
##  2 Afghanistan Asia        1957    30.3  9240934      821.
##  3 Afghanistan Asia        1962    32.0 10267083      853.
##  4 Afghanistan Asia        1967    34.0 11537966      836.
##  5 Afghanistan Asia        1972    36.1 13079460      740.
##  6 Afghanistan Asia        1977    38.4 14880372      786.
##  7 Afghanistan Asia        1982    39.9 12881816      978.
##  8 Afghanistan Asia        1987    40.8 13867957      852.
##  9 Afghanistan Asia        1992    41.7 16317921      649.
## 10 Afghanistan Asia        1997    41.8 22227415      635.
## # ... with 1,694 more rows
```

---

# Guarda e imprime

```r
(datos_mundo <- read_csv("../datos/datos_mundo.csv"))
```

```
## # A tibble: 1,704 x 6
##    pais        continente  anio ExpVida      pob gdpPercap
##    <chr>       <chr>      <dbl>   <dbl>    <dbl>     <dbl>
##  1 Afghanistan Asia        1952    28.8  8425333      779.
##  2 Afghanistan Asia        1957    30.3  9240934      821.
##  3 Afghanistan Asia        1962    32.0 10267083      853.
##  4 Afghanistan Asia        1967    34.0 11537966      836.
##  5 Afghanistan Asia        1972    36.1 13079460      740.
##  6 Afghanistan Asia        1977    38.4 14880372      786.
##  7 Afghanistan Asia        1982    39.9 12881816      978.
##  8 Afghanistan Asia        1987    40.8 13867957      852.
##  9 Afghanistan Asia        1992    41.7 16317921      649.
## 10 Afghanistan Asia        1997    41.8 22227415      635.
## # ... with 1,694 more rows
```
…
- `CodigoViz.R`

---

# Datos 

```r
library(readr)
library(ggplot2)
(datos_mundo <- read_csv("../datos/datos_mundo2007.csv"))
```

```
## # A tibble: 142 x 6
##    pais        continente  anio ExpVida       pob gdpPercap
##    <chr>       <chr>      <dbl>   <dbl>     <dbl>     <dbl>
##  1 Afghanistan Asia        2007    43.8  31889923      975.
##  2 Albania     Europe      2007    76.4   3600523     5937.
##  3 Algeria     Africa      2007    72.3  33333216     6223.
##  4 Angola      Africa      2007    42.7  12420476     4797.
##  5 Argentina   Americas    2007    75.3  40301927    12779.
##  6 Australia   Oceania     2007    81.2  20434176    34435.
##  7 Austria     Europe      2007    79.8   8199783    36126.
##  8 Bahrain     Asia        2007    75.6    708573    29796.
##  9 Bangladesh  Asia        2007    64.1 150448339     1391.
## 10 Belgium     Europe      2007    79.4  10392226    33693.
## # ... with 132 more rows
```
…
- `CodigoCovidViz.R`

---

# Datos COVID-19 
## Cargar datos

```r
library(readr)
(datos_covid <- read_csv("../datos/DatosCOVIDRegion.csv"))
```

```
## # A tibble: 7,310 x 6
##    region         fecha      casos_nuevos fallecidos fallecidos_d casos_nuevos_d
##    <chr>          <date>            <dbl>      <dbl>        <dbl>          <dbl>
##  1 Arica y Parin~ 2020-03-03           NA         NA           NA              0
##  2 Arica y Parin~ 2020-03-04           NA         NA           NA              0
##  3 Arica y Parin~ 2020-03-05            0         NA           NA              0
##  4 Arica y Parin~ 2020-03-06            0         NA           NA              0
##  5 Arica y Parin~ 2020-03-07            0         NA           NA              0
##  6 Arica y Parin~ 2020-03-08            0         NA           NA              0
##  7 Arica y Parin~ 2020-03-09            0         NA           NA              0
##  8 Arica y Parin~ 2020-03-10            0         NA           NA              0
##  9 Arica y Parin~ 2020-03-11            0         NA           NA              0
## 10 Arica y Parin~ 2020-03-12            0         NA           NA              0
## # ... with 7,300 more rows
```
…
