Ciencia de Datos para Políticas Públicas
…
# Muchas remuestras

1. Consideremos nuestra muestra de `\(n = 300\)` observaciones/personas.
2. Imaginemos que ponemos 300 papeles con las edades de nuestra muestra en un gorro.
3. Sacaremos una observación, registraremos su valor (ej. edad = 46) y pondremos de vuelta el papel en el gorro
4. Repetiremos el paso **3.** tantas veces como sea nuestro `\(n\)`. En este caso 300 veces.
5. Terminaremos con una **remuestra** con `\(n=300\)` creada a partir de nuestra única muestra original, `muestra_censo`
6. **Hacemos lo anterior 1.000 veces**.

```r
(guardar_remuestras <- read_csv("../datos/remuestras_edad.csv"))
```

```
## # A tibble: 300,000 x 2
##     edad remuestra
##    <dbl>     <dbl>
##  1    35         1
##  2    37         1
##  3    26         1
##  4     6         1
##  5    24         1
##  6    49         1
##  7    60         1
##  8    14         1
##  9    24         1
## 10    23         1
## # ... with 299,990 more rows
```
…
# Muchas remuestras

.pull-left[
.small[

```r
(promedio_remuestras <- 
   guardar_remuestras %>%
      group_by(remuestra) %>%
      summarise(promedio_edad = mean(edad,
                                     na.rm = TRUE)))
```

```
## # A tibble: 1,000 x 2
##    remuestra promedio_edad
##        <dbl>         <dbl>
##  1         1          38.8
##  2         2          38.4
##  3         3          37.7
##  4         4          39.1
##  5         5          36.7
##  6         6          36.1
##  7         7          37.1
##  8         8          37.2
##  9         9          37.5
## 10        10          39.3
## # ... with 990 more rows
```
…
# Paquete **infer**

.pull-left[

```r
muestra_censo %>% 
* specify(response = edad)
```
]

.pull-right[

```
## Response: edad (integer)
## # A tibble: 300 x 1
##     edad
##    <int>
##  1    89
##  2    51
##  3    48
##  4     8
##  5    38
##  6    17
##  7    18
##  8    23
##  9    38
## 10    27
## # ... with 290 more rows
```
…
.pull-left[

```r
muestra_censo %>% 
  specify(response = edad) %>% 
* generate(reps = 1000,
*          type = "bootstrap")
```
]

.pull-right[

```
## Response: edad (integer)
## # A tibble: 300,000 x 2
## # Groups:   replicate [1,000]
##    replicate  edad
##        <int> <int>
##  1         1    59
##  2         1    37
##  3         1    68
##  4         1    23
##  5         1    47
##  6         1    15
##  7         1    21
##  8         1    56
##  9         1    27
## 10         1    21
## # ... with 299,990 more rows
```
…
.pull-left[

```r
muestra_censo %>% 
  specify(response = edad) %>% 
  generate(reps = 1000, 
           type = "bootstrap") %>% 
* calculate(stat = "mean")
```
]

.pull-right[

```
## # A tibble: 1,000 x 2
##    replicate  stat
##        <int> <dbl>
##  1         1  36.7
##  2         2  38.4
##  3         3  39.3
##  4         4  39.5
##  5         5  39.3
##  6         6  38.7
##  7         7  38.9
##  8         8  38.8
##  9         9  37.3
## 10        10  39.2
## # ... with 990 more rows
```
…
```r
ascensos %>% 
* specify(formula = decision ~ sexo,
*         success = "Con ascenso")
```
]
]

.pull-right[
.small[

```
## Response: decision (factor)
## Explanatory: sexo (factor)
## # A tibble: 48 x 2
##    decision    sexo     
##    <fct>       <fct>    
##  1 Con ascenso masculino
##  2 Con ascenso masculino
##  3 Con ascenso masculino
##  4 Con ascenso masculino
##  5 Con ascenso masculino
##  6 Con ascenso masculino
##  7 Con ascenso masculino
##  8 Con ascenso masculino
##  9 Con ascenso masculino
## 10 Con ascenso masculino
## # ... with 38 more rows
```
…
.pull-right[
.small[

```
## Response: decision (factor)
## Explanatory: sexo (factor)
## Null Hypothesis: independence
## # A tibble: 48 x 2
##    decision    sexo     
##    <fct>       <fct>    
##  1 Con ascenso masculino
##  2 Con ascenso masculino
##  3 Con ascenso masculino
##  4 Con ascenso masculino
##  5 Con ascenso masculino
##  6 Con ascenso masculino
##  7 Con ascenso masculino
##  8 Con ascenso masculino
##  9 Con ascenso masculino
## 10 Con ascenso masculino
## # ... with 38 more rows
```
…
.pull-right[
.small[

```
## Response: decision (factor)
## Explanatory: sexo (factor)
## Null Hypothesis: independence
## # A tibble: 48,000 x 3
## # Groups:   replicate [1,000]
##    decision    sexo      replicate
##    <fct>       <fct>         <int>
##  1 Con ascenso masculino         1
##  2 Con ascenso masculino         1
##  3 Sin ascenso masculino         1
##  4 Sin ascenso masculino         1
##  5 Con ascenso masculino         1
##  6 Con ascenso masculino         1
##  7 Con ascenso masculino         1
##  8 Con ascenso masculino         1
##  9 Con ascenso masculino         1
## 10 Sin ascenso masculino         1
## # ... with 47,990 more rows
```
…
.pull-right[
.small[

```
## # A tibble: 1,000 x 2
##    replicate    stat
##        <int>   <dbl>
##  1         1  0.125 
##  2         2  0.125 
##  3         3 -0.0417
##  4         4 -0.208 
##  5         5  0.125 
##  6         6 -0.208 
##  7         7 -0.0417
##  8         8  0.292 
##  9         9  0.125 
## 10        10  0.0417
## # ... with 990 more rows
```
…
.pull-right[
.small[

```
## # A tibble: 1,000 x 2
##    replicate    stat
##        <int>   <dbl>
##  1         1  0.125 
##  2         2  0.125 
##  3         3 -0.0417
##  4         4 -0.208 
##  5         5  0.125 
##  6         6 -0.208 
##  7         7 -0.0417
##  8         8  0.292 
##  9         9  0.125 
## 10        10  0.0417
## # ... with 990 more rows
```
…
