Ciencia de Datos para Políticas Públicas
…
<img src="../Imagenes/Filter.PNG" width="450px" style="display: block; margin: auto;" />

---

# Seleccionar filas

#### <span style="color:red">Solo las observaciones correspondientes a Chile</span>

```r
datosONU_tidy %>% 
  filter(country_name == "Chile")
```

```
## # A tibble: 36 x 17
##    country_name income_group region  year co2_emissions_m~ fertility_rate_~
##    <chr>        <chr>        <chr>  <dbl>            <dbl>            <dbl>
##  1 Chile        High Income  Latin~  1972             2.84             3.68
##  2 Chile        High Income  Latin~  1973             2.74             3.50
##  3 Chile        High Income  Latin~  1974             2.53             3.33
##  4 Chile        High Income  Latin~  1975             2.21             3.16
##  5 Chile        High Income  Latin~  1976             2.28             3.01
##  6 Chile        High Income  Latin~  1977             2.15             2.89
##  7 Chile        High Income  Latin~  1978             2.11             2.79
##  8 Chile        High Income  Latin~  1979             2.25             2.72
##  9 Chile        High Income  Latin~  1980             2.26             2.68
## 10 Chile        High Income  Latin~  1981             2.16             2.66
## # ... with 26 more rows, and 11 more variables:
## #   forest_area_percent_of_land_area <dbl>,
## #   gdp_per_capita_constant_2005_us <dbl>,
## #   health_expenditure_per_capita_ppp_constant_2005_international <dbl>,
## #   labor_force_participation_rate_female_percent_of_female_population_ages_15_modeled_ilo_estimate <dbl>,
## #   life_expectancy_at_birth_total_years <dbl>,
## #   malnutrition_prevalence_weight_for_age_percent_of_children_under_5 <dbl>,
## #   population_total <dbl>, urban_population_percent_of_total <dbl>,
## #   fossil_fuel_energy_consumption_percent_of_total <dbl>,
…
---

# Seleccionar filas

#### <span style="color:red">Solo las observaciones correspondientes al 2000 o al 2007</span>

```r
datosONU_tidy %>% 
  filter(year == 2000 | year == 2007)
```

```
## # A tibble: 428 x 17
##    country_name income_group region  year co2_emissions_m~ fertility_rate_~
##    <chr>        <chr>        <chr>  <dbl>            <dbl>            <dbl>
##  1 Afghanistan  Low Income   South~  2000           0.0379             7.73
##  2 Afghanistan  Low Income   South~  2007           0.0756             6.46
##  3 Albania      Upper Middl~ Europ~  2000           0.978              2.38
##  4 Albania      Upper Middl~ Europ~  2007           1.38               1.80
##  5 Algeria      Upper Middl~ Middl~  2000           2.77               2.51
##  6 Algeria      Upper Middl~ Middl~  2007           3.20               2.66
##  7 American Sa~ Upper Middl~ East ~  2000          NA                 NA   
##  8 American Sa~ Upper Middl~ East ~  2007          NA                 NA   
##  9 Andorra      High Income  Europ~  2000           8.02              NA   
## 10 Andorra      High Income  Europ~  2007           6.63               1.18
## # ... with 418 more rows, and 11 more variables:
## #   forest_area_percent_of_land_area <dbl>,
## #   gdp_per_capita_constant_2005_us <dbl>,
## #   health_expenditure_per_capita_ppp_constant_2005_international <dbl>,
## #   labor_force_participation_rate_female_percent_of_female_population_ages_15_modeled_ilo_estimate <dbl>,
## #   life_expectancy_at_birth_total_years <dbl>,
## #   malnutrition_prevalence_weight_for_age_percent_of_children_under_5 <dbl>,
## #   population_total <dbl>, urban_population_percent_of_total <dbl>,
## #   fossil_fuel_energy_consumption_percent_of_total <dbl>,
…
]

---

# Seleccionar filas

#### <span style="color:red">Solo las observaciones correspondientes a los años 1995, 2000, y 2005</span>

```r
datosONU_tidy %>% 
  filter(year == 1995 | year == 2000 | year == 2005)
```

```
## # A tibble: 642 x 17
##    country_name income_group region  year co2_emissions_m~ fertility_rate_~
##    <chr>        <chr>        <chr>  <dbl>            <dbl>            <dbl>
##  1 Afghanistan  Low Income   South~  1995           0.0721             7.83
##  2 Afghanistan  Low Income   South~  2000           0.0379             7.73
##  3 Afghanistan  Low Income   South~  2005           0.0409             6.93
##  4 Albania      Upper Middl~ Europ~  1995           0.655              2.72
##  5 Albania      Upper Middl~ Europ~  2000           0.978              2.38
##  6 Albania      Upper Middl~ Europ~  2005           1.42               1.92
##  7 Algeria      Upper Middl~ Middl~  1995           3.23               3.45
##  8 Algeria      Upper Middl~ Middl~  2000           2.77               2.51
##  9 Algeria      Upper Middl~ Middl~  2005           3.15               2.51
## 10 American Sa~ Upper Middl~ East ~  1995          NA                 NA   
## # ... with 632 more rows, and 11 more variables:
## #   forest_area_percent_of_land_area <dbl>,
## #   gdp_per_capita_constant_2005_us <dbl>,
## #   health_expenditure_per_capita_ppp_constant_2005_international <dbl>,
## #   labor_force_participation_rate_female_percent_of_female_population_ages_15_modeled_ilo_estimate <dbl>,
## #   life_expectancy_at_birth_total_years <dbl>,
## #   malnutrition_prevalence_weight_for_age_percent_of_children_under_5 <dbl>,
## #   population_total <dbl>, urban_population_percent_of_total <dbl>,
## #   fossil_fuel_energy_consumption_percent_of_total <dbl>,
…
---
# Seleccionar filas

#### <span style="color:red">Solo las observaciones correspondientes a los años 1995, 2000, y 2005</span>

```r
datosONU_tidy %>% 
  filter(year %in% c(1995, 2000, 2005))
```

```
## # A tibble: 642 x 17
##    country_name income_group region  year co2_emissions_m~ fertility_rate_~
##    <chr>        <chr>        <chr>  <dbl>            <dbl>            <dbl>
##  1 Afghanistan  Low Income   South~  1995           0.0721             7.83
##  2 Afghanistan  Low Income   South~  2000           0.0379             7.73
##  3 Afghanistan  Low Income   South~  2005           0.0409             6.93
##  4 Albania      Upper Middl~ Europ~  1995           0.655              2.72
##  5 Albania      Upper Middl~ Europ~  2000           0.978              2.38
##  6 Albania      Upper Middl~ Europ~  2005           1.42               1.92
##  7 Algeria      Upper Middl~ Middl~  1995           3.23               3.45
##  8 Algeria      Upper Middl~ Middl~  2000           2.77               2.51
##  9 Algeria      Upper Middl~ Middl~  2005           3.15               2.51
## 10 American Sa~ Upper Middl~ East ~  1995          NA                 NA   
## # ... with 632 more rows, and 11 more variables:
## #   forest_area_percent_of_land_area <dbl>,
## #   gdp_per_capita_constant_2005_us <dbl>,
## #   health_expenditure_per_capita_ppp_constant_2005_international <dbl>,
## #   labor_force_participation_rate_female_percent_of_female_population_ages_15_modeled_ilo_estimate <dbl>,
## #   life_expectancy_at_birth_total_years <dbl>,
## #   malnutrition_prevalence_weight_for_age_percent_of_children_under_5 <dbl>,
## #   population_total <dbl>, urban_population_percent_of_total <dbl>,
## #   fossil_fuel_energy_consumption_percent_of_total <dbl>,
…
---

# Seleccionar filas

#### <span style="color:red">Solo las observaciones **NO** correspondientes a los años 1995, 2000, y 2005</span>

```r
datosONU_tidy %>% 
  filter(!year %in% c(1995, 2000, 2005))
```

```
## # A tibble: 7,062 x 17
##    country_name income_group region  year co2_emissions_m~ fertility_rate_~
##    <chr>        <chr>        <chr>  <dbl>            <dbl>            <dbl>
##  1 Afghanistan  Low Income   South~  1972            0.132             7.67
##  2 Afghanistan  Low Income   South~  1973            0.137             7.67
##  3 Afghanistan  Low Income   South~  1974            0.156             7.67
##  4 Afghanistan  Low Income   South~  1975            0.169             7.67
##  5 Afghanistan  Low Income   South~  1976            0.155             7.67
##  6 Afghanistan  Low Income   South~  1977            0.183             7.67
##  7 Afghanistan  Low Income   South~  1978            0.164             7.67
##  8 Afghanistan  Low Income   South~  1979            0.169             7.67
##  9 Afghanistan  Low Income   South~  1980            0.134             7.67
## 10 Afghanistan  Low Income   South~  1981            0.153             7.67
## # ... with 7,052 more rows, and 11 more variables:
## #   forest_area_percent_of_land_area <dbl>,
## #   gdp_per_capita_constant_2005_us <dbl>,
## #   health_expenditure_per_capita_ppp_constant_2005_international <dbl>,
## #   labor_force_participation_rate_female_percent_of_female_population_ages_15_modeled_ilo_estimate <dbl>,
## #   life_expectancy_at_birth_total_years <dbl>,
## #   malnutrition_prevalence_weight_for_age_percent_of_children_under_5 <dbl>,
## #   population_total <dbl>, urban_population_percent_of_total <dbl>,
## #   fossil_fuel_energy_consumption_percent_of_total <dbl>,
…
<img src="../Imagenes/Select.PNG" width="450px" style="display: block; margin: auto;" />

---

# Seleccionar columnas/variables

#### <span style="color:red">Seleccionar 5 variables/columnas</span>

```r
datosONU_tidy %>% 
  select(country_name, income_group, region, year, population_total)
```

```
## # A tibble: 7,704 x 5
##    country_name income_group region      year population_total
##    <chr>        <chr>        <chr>      <dbl>            <dbl>
##  1 Afghanistan  Low Income   South Asia  1972         11644377
##  2 Afghanistan  Low Income   South Asia  1973         11966352
##  3 Afghanistan  Low Income   South Asia  1974         12273589
##  4 Afghanistan  Low Income   South Asia  1975         12551790
##  5 Afghanistan  Low Income   South Asia  1976         12806810
##  6 Afghanistan  Low Income   South Asia  1977         13034460
##  7 Afghanistan  Low Income   South Asia  1978         13199597
##  8 Afghanistan  Low Income   South Asia  1979         13257128
##  9 Afghanistan  Low Income   South Asia  1980         13180431
## 10 Afghanistan  Low Income   South Asia  1981         12963788
## # ... with 7,694 more rows
```

---

# Seleccionar columnas/variables

#### <span style="color:red">Dejar todas las columnas menos dos</span>

```r
datosONU_tidy %>% 
  select(-region, -income_group)
```

```
## # A tibble: 7,704 x 15
##    country_name  year co2_emissions_m~ fertility_rate_~ forest_area_per~
##    <chr>        <dbl>            <dbl>            <dbl>            <dbl>
##  1 Afghanistan   1972            0.132             7.67               NA
##  2 Afghanistan   1973            0.137             7.67               NA
##  3 Afghanistan   1974            0.156             7.67               NA
##  4 Afghanistan   1975            0.169             7.67               NA
##  5 Afghanistan   1976            0.155             7.67               NA
##  6 Afghanistan   1977            0.183             7.67               NA
##  7 Afghanistan   1978            0.164             7.67               NA
##  8 Afghanistan   1979            0.169             7.67               NA
##  9 Afghanistan   1980            0.134             7.67               NA
## 10 Afghanistan   1981            0.153             7.67               NA
## # ... with 7,694 more rows, and 10 more variables:
## #   gdp_per_capita_constant_2005_us <dbl>,
## #   health_expenditure_per_capita_ppp_constant_2005_international <dbl>,
## #   labor_force_participation_rate_female_percent_of_female_population_ages_15_modeled_ilo_estimate <dbl>,
## #   life_expectancy_at_birth_total_years <dbl>,
## #   malnutrition_prevalence_weight_for_age_percent_of_children_under_5 <dbl>,
## #   population_total <dbl>, urban_population_percent_of_total <dbl>,
## #   fossil_fuel_energy_consumption_percent_of_total <dbl>,
## #   poverty_headcount_ratio_at_2_a_day_ppp_percent_of_population <dbl>,
…
---

# Funciones "de ayuda"

#### <span style="color:red">Dejar todas las columnas que contengan *per capita*</span>

```r
datosONU_tidy %>% 
  select(contains("per_capita"))
```

```
## # A tibble: 7,704 x 3
##    co2_emissions_metric_t~ gdp_per_capita_const~ health_expenditure_per_capita_~
##                      <dbl>                 <dbl>                           <dbl>
##  1                   0.132                    NA                              NA
##  2                   0.137                    NA                              NA
##  3                   0.156                    NA                              NA
##  4                   0.169                    NA                              NA
##  5                   0.155                    NA                              NA
##  6                   0.183                    NA                              NA
##  7                   0.164                    NA                              NA
##  8                   0.169                    NA                              NA
##  9                   0.134                    NA                              NA
## 10                   0.153                    NA                              NA
## # ... with 7,694 more rows
```

---

# Funciones "de ayuda"

#### <span style="color:red">Dejar todas las columnas que contengan *per capita* o *poverty*</span>

```r
datosONU_tidy %>% 
  select(contains("per_capita") | contains("poverty"))
```

```
## # A tibble: 7,704 x 4
##    co2_emissions_met~ gdp_per_capita_co~ health_expenditure~ poverty_headcount_~
##                 <dbl>              <dbl>               <dbl>               <dbl>
##  1              0.132                 NA                  NA                  NA
##  2              0.137                 NA                  NA                  NA
##  3              0.156                 NA                  NA                  NA
##  4              0.169                 NA                  NA                  NA
##  5              0.155                 NA                  NA                  NA
##  6              0.183                 NA                  NA                  NA
##  7              0.164                 NA                  NA                  NA
##  8              0.169                 NA                  NA                  NA
##  9              0.134                 NA                  NA                  NA
## 10              0.153                 NA                  NA                  NA
## # ... with 7,694 more rows
```

---

# Funciones "de ayuda"

#### <span style="color:red">Dejar todas las columnas que contengan *per capita* o *poverty*</span>

```r
datosONU_tidy %>% 
  select(contains(c("per_capita", "poverty")))
```

```
## # A tibble: 7,704 x 4
##    co2_emissions_met~ gdp_per_capita_co~ health_expenditure~ poverty_headcount_~
##                 <dbl>              <dbl>               <dbl>               <dbl>
##  1              0.132                 NA                  NA                  NA
##  2              0.137                 NA                  NA                  NA
##  3              0.156                 NA                  NA                  NA
##  4              0.169                 NA                  NA                  NA
##  5              0.155                 NA                  NA                  NA
##  6              0.183                 NA                  NA                  NA
##  7              0.164                 NA                  NA                  NA
##  8              0.169                 NA                  NA                  NA
##  9              0.134                 NA                  NA                  NA
## 10              0.153                 NA                  NA                  NA
## # ... with 7,694 more rows
```

---

# Funciones "de ayuda"

#### <span style="color:red">Dejar todas las columnas que contengan *per capita* y *co2*</span>

```r
datosONU_tidy %>% 
  select(contains("per_capita") & contains("co2"))
```

```
## # A tibble: 7,704 x 1
##    co2_emissions_metric_tons_per_capita
##                                   <dbl>
##  1                                0.132
##  2                                0.137
##  3                                0.156
##  4                                0.169
##  5                                0.155
##  6                                0.183
##  7                                0.164
##  8                                0.169
##  9                                0.134
## 10                                0.153
## # ... with 7,694 more rows
```

---

# Funciones "de ayuda"

#### <span style="color:red">Dejar todas las columnas que comiencen con *p*</span>

```r
datosONU_tidy %>% 
  select(starts_with("p"))
```

```
## # A tibble: 7,704 x 3
##    population_total poverty_headcount_ratio_at_2~ public_spending_on_education_~
##               <dbl>                         <dbl>                          <dbl>
##  1         11644377                            NA                             NA
##  2         11966352                            NA                             NA
##  3         12273589                            NA                             NA
##  4         12551790                            NA                             NA
##  5         12806810                            NA                             NA
##  6         13034460                            NA                             NA
##  7         13199597                            NA                             NA
##  8         13257128                            NA                             NA
##  9         13180431                            NA                             NA
## 10         12963788                            NA                             NA
## # ... with 7,694 more rows
```

---

# Funciones "de ayuda"

#### <span style="color:red">Dejar todas las columnas numéricas</span>

```r
datosONU_tidy %>% 
  select(where(is.numeric))
```

```
## # A tibble: 7,704 x 14
##     year co2_emissions_m~ fertility_rate_~ forest_area_per~ gdp_per_capita_~
##    <dbl>            <dbl>            <dbl>            <dbl>            <dbl>
##  1  1972            0.132             7.67               NA               NA
##  2  1973            0.137             7.67               NA               NA
##  3  1974            0.156             7.67               NA               NA
##  4  1975            0.169             7.67               NA               NA
##  5  1976            0.155             7.67               NA               NA
##  6  1977            0.183             7.67               NA               NA
##  7  1978            0.164             7.67               NA               NA
##  8  1979            0.169             7.67               NA               NA
##  9  1980            0.134             7.67               NA               NA
## 10  1981            0.153             7.67               NA               NA
## # ... with 7,694 more rows, and 9 more variables:
## #   health_expenditure_per_capita_ppp_constant_2005_international <dbl>,
## #   labor_force_participation_rate_female_percent_of_female_population_ages_15_modeled_ilo_estimate <dbl>,
## #   life_expectancy_at_birth_total_years <dbl>,
## #   malnutrition_prevalence_weight_for_age_percent_of_children_under_5 <dbl>,
## #   population_total <dbl>, urban_population_percent_of_total <dbl>,
## #   fossil_fuel_energy_consumption_percent_of_total <dbl>,
## #   poverty_headcount_ratio_at_2_a_day_ppp_percent_of_population <dbl>,
## #   public_spending_on_education_total_percent_of_government_expenditure <dbl>
```
…
